<svg width="15" height="13" viewBox="0 0 15 13" fill="none" xmlns="http://www.w3.org/2000/svg">
<path d="M14.1699 7.96637V12.9137H11.3016V8.29794C11.3016 7.13897 10.8874 6.34749 9.84888 6.34749C9.05634 6.34749 8.58552 6.88035 8.3776 7.3963C8.30209 7.58069 8.28262 7.83675 8.28262 8.09536V12.9135H5.41407C5.41407 12.9135 5.45257 5.0959 5.41407 4.28667H8.28283V5.50918C8.27706 5.5188 8.26893 5.52821 8.2638 5.53741H8.28283V5.50918C8.66402 4.92263 9.34383 4.0841 10.868 4.0841C12.7551 4.0841 14.1699 5.31708 14.1699 7.96637ZM2.41332 0.128235C1.43211 0.128235 0.790161 0.772322 0.790161 1.61856C0.790161 2.44682 1.4135 3.10952 2.37567 3.10952H2.39428C3.39475 3.10952 4.0168 2.44682 4.0168 1.61856C3.99776 0.772322 3.39475 0.128235 2.41332 0.128235ZM0.960648 12.9137H3.82813V4.28667H0.960648V12.9137Z" fill="#19181B"/>
</svg>
